{
  "kind": "collectionType",
  "collectionName": "wac_correcteds",
  "info": {
    "singularName": "wac-corrected",
    "pluralName": "wac-correcteds",
    "displayName": "Wac Corrected",
    "description": ""
  },
  "options": {
    "draftAndPublish": false
  },
  "pluginOptions": {},
  "attributes": {
    "analysisid": {
      "type": "string"
    },
    "iserror": {
      "type": "boolean"
    },
    "payload": {
      "type": "json"
    },
    "wactotal": {
      "type": "decimal"
    },
    "totaldistance": {
      "type": "decimal"
    },
    "totalduration": {
      "type": "decimal"
    },
    "totalascent": {
      "type": "decimal"
    },
    "totaldescent": {
      "type": "decimal"
    },
    "simulationtype": {
      "type": "string"
    }
  }
}
