{
  "kind": "collectionType",
  "collectionName": "analyses",
  "info": {
    "singularName": "analysis",
    "pluralName": "analyses",
    "displayName": "Analysis",
    "description": ""
  },
  "options": {
    "draftAndPublish": false
  },
  "pluginOptions": {},
  "attributes": {
    "startlat": {
      "type": "float"
    },
    "startlng": {
      "type": "float"
    },
    "rawpayload": {
      "type": "json"
    },
    "endlat": {
      "type": "float"
    },
    "endlng": {
      "type": "float"
    },
    "highwaytype": {
      "type": "string"
    },
    "segmentname": {
      "type": "string"
    },
    "surface": {
      "type": "string"
    },
    "osmtype": {
      "type": "string"
    },
    "osmid": {
      "type": "biginteger"
    },
    "distance": {
      "type": "float"
    },
    "duration": {
      "type": "float"
    },
    "tltascent": {
      "type": "float"
    },
    "tltdescent": {
      "type": "float"
    },
    "analysisid": {
      "type": "string"
    },
    "crossings": {
      "type": "string"
    },
    "surfacescore": {
      "type": "integer"
    },
    "crossingscore": {
      "type": "integer"
    },
    "barrierscore": {
      "type": "integer"
    },
    "kerbtype": {
      "type": "string"
    },
    "accessiblekerb": {
      "type": "integer"
    },
    "kerbcount": {
      "type": "integer"
    },
    "incline": {
      "type": "integer"
    },
    "rawincline": {
      "type": "string"
    },
    "lit": {
      "type": "boolean",
      "default": false
    },
    "tltduration": {
      "type": "decimal"
    },
    "tltdistance": {
      "type": "decimal"
    }
  }
}
